[
  {
    "coinId": "bitcoin",
    "url":"https://blockstream.info/tx/"
  },
  {
    "coinId": "ethereum",
    "url":"https://etherscan.io/tx/"
  },
  {
    "coinId": "ripple",
    "url":"https://xrpscan.com/tx/"
  },
  {
    "coinId": "dogecoin",
    "url":"https://dogechain.info/tx/"
  },
  {
    "coinId": "binancecoin",
    "url":"https://bscscan.com/tx/"
  },
  {
    "coinId": "tron",
    "url":"https://tronscan.org/#/transaction/"
  },
  {
    "coinId": "cardano",
    "url":"https://explorer.cardano.org/en/transaction?id="
  },
  {
    "coinId": "chainlink",
    "url":"https://etherscan.io/tx/"
  },
  {
    "coinId": "stellar",
    "url":"https://stellar.expert/explorer/public/tx/"
  },
  {
    "coinId": "monero",
    "url":"https://xmrchain.net/tx/"
  },
  {
    "coinId": "solana",
    "url":"https://explorer.solana.com/tx/"
  },
  {
    "coinId": "neo",
    "url":"https://neoscan.io/transaction/"
  },
  {
    "coinId": "litecoin",
    "url":"https://live.blockcypher.com/ltc/tx/"
  },
  {
    "coinId": "vechain",
    "url":"https://explore.vechain.org/transactions/"
  },
  {
    "coinId": "eos",
    "url":"https://bloks.io/transaction/"
  },
  {
    "coinId": "zcash",
    "url":"https://explorer.zcha.in/transactions/"
  },
  {
    "coinId": "tether",
    "url":"https://etherscan.io/tx/"
  },
  {
    "coinId": "usd-coin",
    "url":"https://etherscan.io/tx/"
  },
  {
    "coinId": "polkadot",
    "url":"https://polkascan.io/polkadot/transaction/"
  },
  {
    "coinId": "uniswap",
    "url":"https://etherscan.io/tx/"
  },
  {
    "coinId": "binance-usd",
    "url":"https://etherscan.io/tx/"
  },
  {
    "coinId": "bitcoin-cash",
    "url":"https://explorer.bitcoin.com/bch/tx/"
  },
  {
    "coinId": "wrapped-bitcoin",
    "url":"https://etherscan.io/tx/"
  },
  {
    "coinId": "theta-token",
    "url":"https://etherscan.io/tx/"
  },
  {
    "coinId": "matic-network",
    "url":"https://etherscan.io/tx/"
  },
  {
    "coinId": "ethereum-classic",
    "url":"https://etcblockexplorer.com/tx/"
  },
  {
    "coinId": "internet-computer",
    "url":"https://www.dfinityexplorer.org/#/tx/"
  },
  {
    "coinId": "terra-luna",
    "url":"https://terra.stake.id/#/tx/"
  },
  {
    "coinId": "filecoin",
    "url":"https://filfox.info/en/message/"
  },
  {
    "coinId": "okb",
    "url":"https://etherscan.io/tx/"
  },
  {
    "coinId": "dai",
    "url":"https://etherscan.io/tx/"
  },
  {
    "coinId": "compound-usd-coin",
    "url":"https://etherscan.io/tx/"
  },
  {
    "coinId": "aave",
    "url":"https://etherscan.io/tx/"
  },
  {
    "coinId": "ftx-token",
    "url":"https://etherscan.io/tx/"
  },
  {
    "coinId": "compound-ether",
    "url":"https://etherscan.io/tx/"
  },
  {
    "coinId": "cdai",
    "url":"https://etherscan.io/tx/"
  },
  {
    "coinId": "cosmos",
    "url":"https://www.mintscan.io/cosmos/txs/"
  },
  {
    "coinId": "pancakeswap-token",
    "url":"https://bscscan.com/tx/"
  },
  {
    "coinId": "the-graph",
    "url":"https://etherscan.io/tx/"
  },
  {
    "coinId": "crypto-com-chain",
    "url":"https://etherscan.io/tx/"
  },
  {
    "coinId": "shiba-inu",
    "url":"https://etherscan.io/tx/"
  },
  {
    "coinId": "klay-token",
    "url":"https://scope.klaytn.com/tx/"
  },
  {
    "coinId": "maker",
    "url":"https://etherscan.io/tx/"
  },
  {
    "coinId": "amp-token",
    "url":"https://etherscan.io/tx/"
  },
  {
    "coinId": "leo-token",
    "url":"https://etherscan.io/tx/"
  },
  {
    "coinId": "tezos",
    "url":"https://tezblock.io/transaction/"
  },
  {
    "coinId": "bitcoin-cash-sv",
    "url":"https://blockchair.com/bitcoin-sv/transaction/"
  },
  {
    "coinId": "algorand",
    "url":"https://algoexplorer.io/tx/"
  },
  {
    "coinId": "celsius-degree-token",
    "url":"https://etherscan.io/tx/"
  },
  {
    "coinId": "avalanche-2",
    "url":"https://explorer.avax.network/tx/"
  },
  {
    "coinId": "iota",
    "url":"https://thetangle.org/message/"
  },
  {
    "coinId": "compound-governance-token",
    "url":"https://etherscan.io/tx/"
  },
  {
    "coinId": "bittorrent",
    "url":"https://etherscan.io/tx/"
  },
  {
    "coinId": "staked-ether",
    "url":"https://etherscan.io/tx/"
  },
  {
    "coinId": "quant-network",
    "url":"https://etherscan.io/tx/"
  },
  {
    "coinId": "sushi",
    "url":"https://etherscan.io/tx/"
  },
  {
    "coinId": "dash",
    "url":"https://explorer.dash.org/insight/tx/"
  },
  {
    "coinId": "basic-attention-token",
    "url":"https://etherscan.io/tx/"
  }
]
